Getting Started with kerasnip • kerasnip
…
Next, we define the search space for our tunable parameters using
dials.

# Define the tuning grid
params <- extract_parameter_set_dials(tune_wf) |>
  update(
    num_hidden_1 = dials::num_terms(c(1, 3)),
    hidden_1_units = dials::hidden_units(c(64, 256)),
    hidden_1_rate = dials::dropout(c(0.2, 0.4))
  )
grid <- grid_regular(params, levels = 3)
grid
#> # A tibble: 27 × 3
#>    num_hidden_1 hidden_1_units hidden_1_rate
#>           <int>          <int>         <dbl>
#>  1            1             64           0.2
#>  2            2             64           0.2
#>  3            3             64           0.2
#>  4            1            160           0.2
#>  5            2            160           0.2
#>  6            3            160           0.2
#>  7            1            256           0.2
#>  8            2            256           0.2
#>  9            3            256           0.2
#> 10            1             64           0.3
#> # ℹ 17 more rows
…
