Tuning Fit and Compile Arguments • kerasnip
…
# Define the tuning grid
params <- extract_parameter_set_dials(tune_wf) |>
  update(
    fit_epochs = epochs(c(10, 30)),
    fit_batch_size = batch_size(c(16, 64), trans = NULL),
    compile_optimizer = optimizer_function(values = c("adam", "sgd", "rmsprop")),
    compile_loss = loss_function_keras(values = c("categorical_crossentropy", "kl_divergence")),
    learn_rate = learn_rate(c(0.001, 0.01), trans = NULL)
  )

set.seed(456)
tuning_grid <- grid_regular(params, levels = 2)

tuning_grid
#> # A tibble: 32 × 5
#>    learn_rate fit_batch_size fit_epochs compile_optimizer compile_loss          
#>         <dbl>          <int>      <int> <chr>             <chr>                 
#>  1      0.001             16         10 adam              categorical_crossentr…
#>  2      0.01              16         10 adam              categorical_crossentr…
#>  3      0.001             64         10 adam              categorical_crossentr…
#>  4      0.01              64         10 adam              categorical_crossentr…
#>  5      0.001             16         30 adam              categorical_crossentr…
#>  6      0.01              16         30 adam              categorical_crossentr…
#>  7      0.001             64         30 adam              categorical_crossentr…
#>  8      0.01              64         30 adam              categorical_crossentr…
#>  9      0.001             16         10 sgd               categorical_crossentr…
#> 10      0.01              16         10 sgd               categorical_crossentr…
#> # ℹ 22 more rows
…
