…
[`predict()`](https://rdrr.io/r/stats/predict.html) returns a nested
`.pred` list-column: one row per input sample, each holding a small
tibble of `.step` (1 to `horizon`) and `.pred` (the forecasted value at
that step). This mirrors how the `censored` package nests multiple
survival-probability values per row (`.pred` / `.eval_time` /
`.pred_survival`), nesting over forecast step instead of evaluation
time.

``` r

preds <- predict(fit_obj, new_data = test_data)
#> 2/2 - 0s - 94ms/step
preds
#> # A tibble: 57 × 1
#>    .pred           
#>    <list>          
#>  1 <tibble [6 × 2]>
#>  2 <tibble [6 × 2]>
#>  3 <tibble [6 × 2]>
#>  4 <tibble [6 × 2]>
#>  5 <tibble [6 × 2]>
#>  6 <tibble [6 × 2]>
#>  7 <tibble [6 × 2]>
#>  8 <tibble [6 × 2]>
#>  9 <tibble [6 × 2]>
#> 10 <tibble [6 × 2]>
#> # ℹ 47 more rows
…
``` r

preds_joint <- predict(
  fit_obj,
  new_data = test_data,
  type = "pred_int",
  joint = TRUE,
  n_draws = 200
)
#> 2/2 - 0s - 12ms/step

one_row_draws <- preds_joint$.pred[[1]]
one_row_draws
#> # A tibble: 1,200 × 3
#>    .draw .step .pred
#>    <int> <int> <dbl>
#>  1     1     1 0.835
#>  2     2     1 0.769
#>  3     3     1 0.851
#>  4     4     1 0.835
#>  5     5     1 0.743
#>  6     6     1 0.912
#>  7     7     1 0.655
#>  8     8     1 0.749
#>  9     9     1 0.813
#> 10    10     1 0.763
#> # ℹ 1,190 more rows
…
