…
We will create a regular grid for our hyperparameters.

``` r
# Define the tuning grid
params <- extract_parameter_set_dials(penguin_wf) |>
  update(
    hidden_1_units = hidden_units(range = c(32, 128)),
    hidden_1_rate = dropout(range = c(0.1, 0.4)),
    hidden_2_units = hidden_units(range = c(16, 64)),
    hidden_2_rate = dropout(range = c(0.1, 0.4))
  )
mlp_grid <- grid_regular(params, levels = 3)

print(mlp_grid)
#> # A tibble: 81 × 4
#>    hidden_1_units hidden_1_rate hidden_2_units hidden_2_rate
#>             <int>         <dbl>          <int>         <dbl>
#>  1             32         0.1               16           0.1
#>  2             80         0.1               16           0.1
#>  3            128         0.1               16           0.1
#>  4             32         0.25              16           0.1
#>  5             80         0.25              16           0.1
#>  6            128         0.25              16           0.1
#>  7             32         0.400             16           0.1
#>  8             80         0.400             16           0.1
#>  9            128         0.400             16           0.1
#> 10             32         0.1               40           0.1
#> # ℹ 71 more rows
```
…
