Tidymodels Workflow with Functional Keras Models (Multi-Input) • kerasnip
…
We will create a regular grid for our hyperparameters.

# Define the tuning grid
params <- extract_parameter_set_dials(ames_wf) |>
  update(
    processed_numerical_units = hidden_units(range = c(32, 128)),
    processed_neighborhood_units = hidden_units(range = c(16, 64)),
    processed_bldg_units = hidden_units(range = c(16, 64)),
    processed_condition_units = hidden_units(range = c(16, 64))
  )
functional_mlp_grid <- grid_regular(params, levels = 3)

print(functional_mlp_grid)
#> # A tibble: 81 × 4
#>    processed_numerical_units processed_neighborhood_units processed_bldg_units
#>                        <int>                        <int>                <int>
#>  1                        32                           16                   16
#>  2                        80                           16                   16
#>  3                       128                           16                   16
#>  4                        32                           40                   16
#>  5                        80                           40                   16
#>  6                       128                           40                   16
#>  7                        32                           64                   16
#>  8                        80                           64                   16
#>  9                       128                           64                   16
#> 10                        32                           16                   40
#> # ℹ 71 more rows
#> # ℹ 1 more variable: processed_condition_units <int>
…
